A [dead]
B [dead]
C [dead]
D [dead]
E Brazzaville
F Dakar
G Djibouti
H [dead]
I [dead]
J Gaborone
K [dead]
L Gitega
M Juba
N [dead]
O [dead]
P [dead]
Q Kampala
R Lilongwe
S Lusaka
T Mogadishu
U Malabo
V [dead]
W [dead]
X [dead]
Y Praia
Z Rabat
