....
----------------------------------------------------------------------
Ran 4 tests in 0.000s

OK
Name               Stmts   Miss Branch BrPart  Cover   Missing
--------------------------------------------------------------
Diplomacy.py          93      0     36      0   100%
TestDiplomacy.py      25      0      2      1    96%   71->exit
--------------------------------------------------------------
TOTAL                118      0     38      1    99%
